{
  "name": "trial",
  "description": "creates and deletes a Route53 DNS record",
  "maintainer": "Dan Vaida",
  "maintainer_email": "vaida.dan@gmail.com",
  "license": "Apache 2.0",
  "platforms": {
  },
  "dependencies": {
    "route53": ">= 0.0.0"
  },
  "recommendations": {
  },
  "suggestions": {
  },
  "conflicting": {
  },
  "providing": {
  },
  "replacing": {
  },
  "attributes": {
  },
  "groupings": {
  },
  "recipes": {
  },
  "version": "0.1.0"
}
